sweltr: 2 Data Set Preparation
…
The taxmap object.

print(obj)

<Taxmap>
  22454 taxa: aaab. Bacteria ... bhfq. ASV7647
  22454 edges: NA->aaab, NA->aaac ... aceb->bhfq
  1 data sets:
    asv_counts:
      # A tibble: 20,173 x 24
        taxon_id asv_id  P01_D00_010_W3A P01_D00_010_W8A
        <chr>    <chr>             <dbl>           <dbl>
      1 adju     ASV9128               0               0
      2 adjv     ASV7870               0               0
      3 adjw     ASV8537               0               0
      # … with 20,170 more rows, and 20 more variables:
      #   P02_D00_010_C0A <dbl>, P03_D00_010_W3B <dbl>,
      #   P03_D00_010_W8B <dbl>, P04_D00_010_C0B <dbl>,
      #   P05_D00_010_W3C <dbl>, P05_D00_010_W8C <dbl>,
      #   P06_D00_010_C0C <dbl>, P07_D00_010_W3D <dbl>,
      #   P07_D00_010_W8D <dbl>, P08_D00_010_C0D <dbl>, …
…
The taxmap object.

print(obj)

<Taxmap>
  4277 taxa: aab. Fungi ... gin. ASV440
  4277 edges: NA->aab, aab->aac ... aqx->gim, bgj->gin
  1 data sets:
    asv_counts:
      # A tibble: 3,355 x 22
        taxon_id asv_id  P01_D00_010_W3A P01_D00_010_W8A
        <chr>    <chr>             <dbl>           <dbl>
      1 bjn      ASV2001               0               0
      2 bjo      ASV142                0               0
      3 bjp      ASV5                  1               0
      # … with 3,352 more rows, and 18 more variables:
      #   P02_D00_010_C0A <dbl>, P03_D00_010_W3B <dbl>,
      #   P03_D00_010_W8B <dbl>, P04_D00_010_C0B <dbl>,
      #   P05_D00_010_W8C <dbl>, P06_D00_010_C0C <dbl>,
      #   P07_D00_010_W3D <dbl>, P07_D00_010_W8D <dbl>,
      #   P08_D00_010_C0D <dbl>, P09_D00_010_W3E <dbl>, …
…
